{"source":"mock","page":1,"per_page":15,"photos":[{"id":15286,"width":2500,"height":1667,"url":"https://www.pexels.com/photo/person-walking-between-green-forest-trees-15286/","photographer":"Luis del Río","photographer_url":"https://www.pexels.com/@luisdelrio","photographer_id":1081,"avg_color":"#283419","src":{"original":"https://images.pexels.com/photos/15286/pexels-photo.jpg","large2x":"https://images.pexels.com/photos/15286/pexels-photo.jpg?auto=compress\u0026cs=tinysrgb\u0026dpr=2\u0026h=650\u0026w=940","large":"https://images.pexels.com/photos/15286/pexels-photo.jpg?auto=compress\u0026cs=tinysrgb\u0026h=650\u0026w=940","medium":"https://images.pexels.com/photos/15286/pexels-photo.jpg?auto=compress\u0026cs=tinysrgb\u0026h=350","small":"https://images.pexels.com/photos/15286/pexels-photo.jpg?auto=compress\u0026cs=tinysrgb\u0026h=130","portrait":"https://images.pexels.com/photos/15286/pexels-photo.jpg?auto=compress\u0026cs=tinysrgb\u0026fit=crop\u0026h=1200\u0026w=800","landscape":"https://images.pexels.com/photos/15286/pexels-photo.jpg?auto=compress\u0026cs=tinysrgb\u0026fit=crop\u0026h=627\u0026w=1200","tiny":"https://images.pexels.com/photos/15286/pexels-photo.jpg?auto=compress\u0026cs=tinysrgb\u0026dpr=1\u0026fit=crop\u0026h=200\u0026w=280"},"liked":false,"alt":"Person Walking Between Green Forest Trees"},{"id":3408744,"width":3546,"height":2255,"url":"https://www.pexels.com/photo/scenic-view-of-snow-capped-mountains-during-night-3408744/","photographer":"stein egil liland","photographer_url":"https://www.pexels.com/@therato","photographer_id":144244,"avg_color":"#557088","src":{"original":"https://images.pexels.com/photos/3408744/pexels-photo-3408744.jpeg","large2x":"https://images.pexels.com/photos/3408744/pexels-photo-3408744.jpeg?auto=compress\u0026cs=tinysrgb\u0026dpr=2\u0026h=650\u0026w=940","large":"https://images.pexels.com/photos/3408744/pexels-photo-3408744.jpeg?auto=compress\u0026cs=tinysrgb\u0026h=650\u0026w=940","medium":"https://images.pexels.com/photos/3408744/pexels-photo-3408744.jpeg?auto=compress\u0026cs=tinysrgb\u0026h=350","small":"https://images.pexels.com/photos/3408744/pexels-photo-3408744.jpeg?auto=compress\u0026cs=tinysrgb\u0026h=130","portrait":"https://images.pexels.com/photos/3408744/pexels-photo-3408744.jpeg?auto=compress\u0026cs=tinysrgb\u0026fit=crop\u0026h=1200\u0026w=800","landscape":"https://images.pexels.com/photos/3408744/pexels-photo-3408744.jpeg?auto=compress\u0026cs=tinysrgb\u0026fit=crop\u0026h=627\u0026w=1200","tiny":"https://images.pexels.com/photos/3408744/pexels-photo-3408744.jpeg?auto=compress\u0026cs=tinysrgb\u0026dpr=1\u0026fit=crop\u0026h=200\u0026w=280"},"liked":false,"alt":"Scenic View Of Snow Capped Mountains During Night"},{"id":624015,"width":4216,"height":2848,"url":"https://www.pexels.com/photo/aurora-borealis-624015/","photographer":"Frans van Heerden","photographer_url":"https://www.pexels.com/@frans-van-heerden-201846","photographer_id":201846,"avg_color":"#71839F","src":{"original":"https://images.pexels.com/photos/624015/pexels-photo-624015.jpeg","large2x":"https://images.pexels.com/photos/624015/pexels-photo-624015.jpeg?auto=compress\u0026cs=tinysrgb\u0026dpr=2\u0026h=650\u0026w=940","large":"https://images.pexels.com/photos/624015/pexels-photo-624015.jpeg?auto=compress\u0026cs=tinysrgb\u0026h=650\u0026w=940","medium":"https://images.pexels.com/photos/624015/pexels-photo-624015.jpeg?auto=compress\u0026cs=tinysrgb\u0026h=350","small":"https://images.pexels.com/photos/624015/pexels-photo-624015.jpeg?auto=compress\u0026cs=tinysrgb\u0026h=130","portrait":"https://images.pexels.com/photos/624015/pexels-photo-624015.jpeg?auto=compress\u0026cs=tinysrgb\u0026fit=crop\u0026h=1200\u0026w=800","landscape":"https://images.pexels.com/photos/624015/pexels-photo-624015.jpeg?auto=compress\u0026cs=tinysrgb\u0026fit=crop\u0026h=627\u0026w=1200","tiny":"https://images.pexels.com/photos/624015/pexels-photo-624015.jpeg?auto=compress\u0026cs=tinysrgb\u0026dpr=1\u0026fit=crop\u0026h=200\u0026w=280"},"liked":false,"alt":"Aurora Borealis"},{"id":572897,"width":6914,"height":4463,"url":"https://www.pexels.com/photo/mountain-covered-snow-under-star-572897/","photographer":"eberhard grossgasteiger","photographer_url":"https://www.pexels.com/@eberhardgross","photographer_id":121938,"avg_color":"#5D5A63","src":{"original":"https://images.pexels.com/photos/572897/pexels-photo-572897.jpeg","large2x":"https://images.pexels.com/photos/572897/pexels-photo-572897.jpeg?auto=compress\u0026cs=tinysrgb\u0026dpr=2\u0026h=650\u0026w=940","large":"https://images.pexels.com/photos/572897/pexels-photo-572897.jpeg?auto=compress\u0026cs=tinysrgb\u0026h=650\u0026w=940","medium":"https://images.pexels.com/photos/572897/pexels-photo-572897.jpeg?auto=compress\u0026cs=tinysrgb\u0026h=350","small":"https://images.pexels.com/photos/572897/pexels-photo-572897.jpeg?auto=compress\u0026cs=tinysrgb\u0026h=130","portrait":"https://images.pexels.com/photos/572897/pexels-photo-572897.jpeg?auto=compress\u0026cs=tinysrgb\u0026fit=crop\u0026h=1200\u0026w=800","landscape":"https://images.pexels.com/photos/572897/pexels-photo-572897.jpeg?auto=compress\u0026cs=tinysrgb\u0026fit=crop\u0026h=627\u0026w=1200","tiny":"https://images.pexels.com/photos/572897/pexels-photo-572897.jpeg?auto=compress\u0026cs=tinysrgb\u0026dpr=1\u0026fit=crop\u0026h=200\u0026w=280"},"liked":false,"alt":"Mountain Covered Snow Under Star"},{"id":2662116,"width":5407,"height":3605,"url":"https://www.pexels.com/photo/beautiful-view-of-moraine-lake-2662116/","photographer":"Jaime Reimer","photographer_url":"https://www.pexels.com/@jaime-reimer-1376930","photographer_id":1376930,"avg_color":"#6F969A","src":{"original":"https://images.pexels.com/photos/2662116/pexels-photo-2662116.jpeg","large2x":"https://images.pexels.com/photos/2662116/pexels-photo-2662116.jpeg?auto=compress\u0026cs=tinysrgb\u0026dpr=2\u0026h=650\u0026w=940","large":"https://images.pexels.com/photos/2662116/pexels-photo-2662116.jpeg?auto=compress\u0026cs=tinysrgb\u0026h=650\u0026w=940","medium":"https://images.pexels.com/photos/2662116/pexels-photo-2662116.jpeg?auto=compress\u0026cs=tinysrgb\u0026h=350","small":"https://images.pexels.com/photos/2662116/pexels-photo-2662116.jpeg?auto=compress\u0026cs=tinysrgb\u0026h=130","portrait":"https://images.pexels.com/photos/2662116/pexels-photo-2662116.jpeg?auto=compress\u0026cs=tinysrgb\u0026fit=crop\u0026h=1200\u0026w=800","landscape":"https://images.pexels.com/photos/2662116/pexels-photo-2662116.jpeg?auto=compress\u0026cs=tinysrgb\u0026fit=crop\u0026h=627\u0026w=1200","tiny":"https://images.pexels.com/photos/2662116/pexels-photo-2662116.jpeg?auto=compress\u0026cs=tinysrgb\u0026dpr=1\u0026fit=crop\u0026h=200\u0026w=280"},"liked":false,"alt":"Beautiful View of Moraine Lake"},{"id":1591373,"width":7360,"height":4912,"url":"https://www.pexels.com/photo/photo-of-coconut-trees-on-seashore-1591373/","photographer":"Asad Photo Maldives","photographer_url":"https://www.pexels.com/@asadphotography","photographer_id":45786,"avg_color":"#819BC1","src":{"original":"https://images.pexels.com/photos/1591373/pexels-photo-1591373.jpeg","large2x":"https://images.pexels.com/photos/1591373/pexels-photo-1591373.jpeg?auto=compress\u0026cs=tinysrgb\u0026dpr=2\u0026h=650\u0026w=940","large":"https://images.pexels.com/photos/1591373/pexels-photo-1591373.jpeg?auto=compress\u0026cs=tinysrgb\u0026h=650\u0026w=940","medium":"https://images.pexels.com/photos/1591373/pexels-photo-1591373.jpeg?auto=compress\u0026cs=tinysrgb\u0026h=350","small":"https://images.pexels.com/photos/1591373/pexels-photo-1591373.jpeg?auto=compress\u0026cs=tinysrgb\u0026h=130","portrait":"https://images.pexels.com/photos/1591373/pexels-photo-1591373.jpeg?auto=compress\u0026cs=tinysrgb\u0026fit=crop\u0026h=1200\u0026w=800","landscape":"https://images.pexels.com/photos/1591373/pexels-photo-1591373.jpeg?auto=compress\u0026cs=tinysrgb\u0026fit=crop\u0026h=627\u0026w=1200","tiny":"https://images.pexels.com/photos/1591373/pexels-photo-1591373.jpeg?auto=compress\u0026cs=tinysrgb\u0026dpr=1\u0026fit=crop\u0026h=200\u0026w=280"},"liked":false,"alt":"Photo of Coconut Trees On Seashore"},{"id":1757363,"width":5616,"height":3744,"url":"https://www.pexels.com/photo/scenic-photo-of-forest-with-sunlight-1757363/","photographer":"Jacob Colvin","photographer_url":"https://www.pexels.com/@jake-pnw","photographer_id":825671,"avg_color":"#625D4A","src":{"original":"https://images.pexels.com/photos/1757363/pexels-photo-1757363.jpeg","large2x":"https://images.pexels.com/photos/1757363/pexels-photo-1757363.jpeg?auto=compress\u0026cs=tinysrgb\u0026dpr=2\u0026h=650\u0026w=940","large":"https://images.pexels.com/photos/1757363/pexels-photo-1757363.jpeg?auto=compress\u0026cs=tinysrgb\u0026h=650\u0026w=940","medium":"https://images.pexels.com/photos/1757363/pexels-photo-1757363.jpeg?auto=compress\u0026cs=tinysrgb\u0026h=350","small":"https://images.pexels.com/photos/1757363/pexels-photo-1757363.jpeg?auto=compress\u0026cs=tinysrgb\u0026h=130","portrait":"https://images.pexels.com/photos/1757363/pexels-photo-1757363.jpeg?auto=compress\u0026cs=tinysrgb\u0026fit=crop\u0026h=1200\u0026w=800","landscape":"https://images.pexels.com/photos/1757363/pexels-photo-1757363.jpeg?auto=compress\u0026cs=tinysrgb\u0026fit=crop\u0026h=627\u0026w=1200","tiny":"https://images.pexels.com/photos/1757363/pexels-photo-1757363.jpeg?auto=compress\u0026cs=tinysrgb\u0026dpr=1\u0026fit=crop\u0026h=200\u0026w=280"},"liked":false,"alt":"Scenic Photo of Forest With Sunlight"},{"id":2387418,"width":4110,"height":2730,"url":"https://www.pexels.com/photo/landscape-photography-of-mountain-and-body-of-water-2387418/","photographer":"Ezra  Comeau","photographer_url":"https://www.pexels.com/@ezra-comeau-1257076","photographer_id":1257076,"avg_color":"#2E4348","src":{"original":"https://images.pexels.com/photos/2387418/pexels-photo-2387418.jpeg","large2x":"https://images.pexels.com/photos/2387418/pexels-photo-2387418.jpeg?auto=compress\u0026cs=tinysrgb\u0026dpr=2\u0026h=650\u0026w=940","large":"https://images.pexels.com/photos/2387418/pexels-photo-2387418.jpeg?auto=compress\u0026cs=tinysrgb\u0026h=650\u0026w=940","medium":"https://images.pexels.com/photos/2387418/pexels-photo-2387418.jpeg?auto=compress\u0026cs=tinysrgb\u0026h=350","small":"https://images.pexels.com/photos/2387418/pexels-photo-2387418.jpeg?auto=compress\u0026cs=tinysrgb\u0026h=130","portrait":"https://images.pexels.com/photos/2387418/pexels-photo-2387418.jpeg?auto=compress\u0026cs=tinysrgb\u0026fit=crop\u0026h=1200\u0026w=800","landscape":"https://images.pexels.com/photos/2387418/pexels-photo-2387418.jpeg?auto=compress\u0026cs=tinysrgb\u0026fit=crop\u0026h=627\u0026w=1200","tiny":"https://images.pexels.com/photos/2387418/pexels-photo-2387418.jpeg?auto=compress\u0026cs=tinysrgb\u0026dpr=1\u0026fit=crop\u0026h=200\u0026w=280"},"liked":false,"alt":"Landscape Photography of Mountain and Body Of Water"},{"id":2559941,"width":5472,"height":3648,"url":"https://www.pexels.com/photo/brown-mountains-2559941/","photographer":"Roberto Nickson","photographer_url":"https://www.pexels.com/@rpnickson","photographer_id":1268114,"avg_color":"#58524A","src":{"original":"https://images.pexels.com/photos/2559941/pexels-photo-2559941.jpeg","large2x":"https://images.pexels.com/photos/2559941/pexels-photo-2559941.jpeg?auto=compress\u0026cs=tinysrgb\u0026dpr=2\u0026h=650\u0026w=940","large":"https://images.pexels.com/photos/2559941/pexels-photo-2559941.jpeg?auto=compress\u0026cs=tinysrgb\u0026h=650\u0026w=940","medium":"https://images.pexels.com/photos/2559941/pexels-photo-2559941.jpeg?auto=compress\u0026cs=tinysrgb\u0026h=350","small":"https://images.pexels.com/photos/2559941/pexels-photo-2559941.jpeg?auto=compress\u0026cs=tinysrgb\u0026h=130","portrait":"https://images.pexels.com/photos/2559941/pexels-photo-2559941.jpeg?auto=compress\u0026cs=tinysrgb\u0026fit=crop\u0026h=1200\u0026w=800","landscape":"https://images.pexels.com/photos/2559941/pexels-photo-2559941.jpeg?auto=compress\u0026cs=tinysrgb\u0026fit=crop\u0026h=627\u0026w=1200","tiny":"https://images.pexels.com/photos/2559941/pexels-photo-2559941.jpeg?auto=compress\u0026cs=tinysrgb\u0026dpr=1\u0026fit=crop\u0026h=200\u0026w=280"},"liked":false,"alt":"Brown Mountains"},{"id":167699,"width":6000,"height":4000,"url":"https://www.pexels.com/photo/green-pine-trees-covered-with-fogs-under-white-sky-during-daytime-167699/","photographer":"Lum3n","photographer_url":"https://www.pexels.com/@lum3n-44775","photographer_id":44775,"avg_color":"#98AAB8","src":{"original":"https://images.pexels.com/photos/167699/pexels-photo-167699.jpeg","large2x":"https://images.pexels.com/photos/167699/pexels-photo-167699.jpeg?auto=compress\u0026cs=tinysrgb\u0026dpr=2\u0026h=650\u0026w=940","large":"https://images.pexels.com/photos/167699/pexels-photo-167699.jpeg?auto=compress\u0026cs=tinysrgb\u0026h=650\u0026w=940","medium":"https://images.pexels.com/photos/167699/pexels-photo-167699.jpeg?auto=compress\u0026cs=tinysrgb\u0026h=350","small":"https://images.pexels.com/photos/167699/pexels-photo-167699.jpeg?auto=compress\u0026cs=tinysrgb\u0026h=130","portrait":"https://images.pexels.com/photos/167699/pexels-photo-167699.jpeg?auto=compress\u0026cs=tinysrgb\u0026fit=crop\u0026h=1200\u0026w=800","landscape":"https://images.pexels.com/photos/167699/pexels-photo-167699.jpeg?auto=compress\u0026cs=tinysrgb\u0026fit=crop\u0026h=627\u0026w=1200","tiny":"https://images.pexels.com/photos/167699/pexels-photo-167699.jpeg?auto=compress\u0026cs=tinysrgb\u0026dpr=1\u0026fit=crop\u0026h=200\u0026w=280"},"liked":false,"alt":"Green Pine Trees Covered With Fogs Under White Sky during Daytime"},{"id":7925859,"width":6000,"height":4000,"url":"https://www.pexels.com/photo/man-riding-surfboard-in-wavy-ocean-7925859/","photographer":"Kammeran Gonzalez-Keola","photographer_url":"https://www.pexels.com/@kammeran-gonzalez-keola-3137381","photographer_id":3137381,"avg_color":"#96BEC8","src":{"original":"https://images.pexels.com/photos/7925859/pexels-photo-7925859.jpeg","large2x":"https://images.pexels.com/photos/7925859/pexels-photo-7925859.jpeg?auto=compress\u0026cs=tinysrgb\u0026dpr=2\u0026h=650\u0026w=940","large":"https://images.pexels.com/photos/7925859/pexels-photo-7925859.jpeg?auto=compress\u0026cs=tinysrgb\u0026h=650\u0026w=940","medium":"https://images.pexels.com/photos/7925859/pexels-photo-7925859.jpeg?auto=compress\u0026cs=tinysrgb\u0026h=350","small":"https://images.pexels.com/photos/7925859/pexels-photo-7925859.jpeg?auto=compress\u0026cs=tinysrgb\u0026h=130","portrait":"https://images.pexels.com/photos/7925859/pexels-photo-7925859.jpeg?auto=compress\u0026cs=tinysrgb\u0026fit=crop\u0026h=1200\u0026w=800","landscape":"https://images.pexels.com/photos/7925859/pexels-photo-7925859.jpeg?auto=compress\u0026cs=tinysrgb\u0026fit=crop\u0026h=627\u0026w=1200","tiny":"https://images.pexels.com/photos/7925859/pexels-photo-7925859.jpeg?auto=compress\u0026cs=tinysrgb\u0026dpr=1\u0026fit=crop\u0026h=200\u0026w=280"},"liked":false,"alt":"Man riding surfboard in wavy ocean"},{"id":7753054,"width":7188,"height":4043,"url":"https://www.pexels.com/photo/gray-asphalt-road-in-dark-forest-7753054/","photographer":"Jack Krzysik","photographer_url":"https://www.pexels.com/@jackkrzysik","photographer_id":6414433,"avg_color":"#394346","src":{"original":"https://images.pexels.com/photos/7753054/pexels-photo-7753054.jpeg","large2x":"https://images.pexels.com/photos/7753054/pexels-photo-7753054.jpeg?auto=compress\u0026cs=tinysrgb\u0026dpr=2\u0026h=650\u0026w=940","large":"https://images.pexels.com/photos/7753054/pexels-photo-7753054.jpeg?auto=compress\u0026cs=tinysrgb\u0026h=650\u0026w=940","medium":"https://images.pexels.com/photos/7753054/pexels-photo-7753054.jpeg?auto=compress\u0026cs=tinysrgb\u0026h=350","small":"https://images.pexels.com/photos/7753054/pexels-photo-7753054.jpeg?auto=compress\u0026cs=tinysrgb\u0026h=130","portrait":"https://images.pexels.com/photos/7753054/pexels-photo-7753054.jpeg?auto=compress\u0026cs=tinysrgb\u0026fit=crop\u0026h=1200\u0026w=800","landscape":"https://images.pexels.com/photos/7753054/pexels-photo-7753054.jpeg?auto=compress\u0026cs=tinysrgb\u0026fit=crop\u0026h=627\u0026w=1200","tiny":"https://images.pexels.com/photos/7753054/pexels-photo-7753054.jpeg?auto=compress\u0026cs=tinysrgb\u0026dpr=1\u0026fit=crop\u0026h=200\u0026w=280"},"liked":false,"alt":"Gray Asphalt Road in Dark Forest"},{"id":235621,"width":3500,"height":2333,"url":"https://www.pexels.com/photo/snowy-forest-235621/","photographer":"Pixabay","photographer_url":"https://www.pexels.com/@pixabay","photographer_id":2659,"avg_color":"#7C828F","src":{"original":"https://images.pexels.com/photos/235621/pexels-photo-235621.jpeg","large2x":"https://images.pexels.com/photos/235621/pexels-photo-235621.jpeg?auto=compress\u0026cs=tinysrgb\u0026dpr=2\u0026h=650\u0026w=940","large":"https://images.pexels.com/photos/235621/pexels-photo-235621.jpeg?auto=compress\u0026cs=tinysrgb\u0026h=650\u0026w=940","medium":"https://images.pexels.com/photos/235621/pexels-photo-235621.jpeg?auto=compress\u0026cs=tinysrgb\u0026h=350","small":"https://images.pexels.com/photos/235621/pexels-photo-235621.jpeg?auto=compress\u0026cs=tinysrgb\u0026h=130","portrait":"https://images.pexels.com/photos/235621/pexels-photo-235621.jpeg?auto=compress\u0026cs=tinysrgb\u0026fit=crop\u0026h=1200\u0026w=800","landscape":"https://images.pexels.com/photos/235621/pexels-photo-235621.jpeg?auto=compress\u0026cs=tinysrgb\u0026fit=crop\u0026h=627\u0026w=1200","tiny":"https://images.pexels.com/photos/235621/pexels-photo-235621.jpeg?auto=compress\u0026cs=tinysrgb\u0026dpr=1\u0026fit=crop\u0026h=200\u0026w=280"},"liked":false,"alt":"Snowy Forest"},{"id":572688,"width":4848,"height":2536,"url":"https://www.pexels.com/photo/green-leafed-trees-572688/","photographer":"Tyler Lastovich","photographer_url":"https://www.pexels.com/@lastly","photographer_id":129858,"avg_color":"#65523A","src":{"original":"https://images.pexels.com/photos/572688/pexels-photo-572688.jpeg","large2x":"https://images.pexels.com/photos/572688/pexels-photo-572688.jpeg?auto=compress\u0026cs=tinysrgb\u0026dpr=2\u0026h=650\u0026w=940","large":"https://images.pexels.com/photos/572688/pexels-photo-572688.jpeg?auto=compress\u0026cs=tinysrgb\u0026h=650\u0026w=940","medium":"https://images.pexels.com/photos/572688/pexels-photo-572688.jpeg?auto=compress\u0026cs=tinysrgb\u0026h=350","small":"https://images.pexels.com/photos/572688/pexels-photo-572688.jpeg?auto=compress\u0026cs=tinysrgb\u0026h=130","portrait":"https://images.pexels.com/photos/572688/pexels-photo-572688.jpeg?auto=compress\u0026cs=tinysrgb\u0026fit=crop\u0026h=1200\u0026w=800","landscape":"https://images.pexels.com/photos/572688/pexels-photo-572688.jpeg?auto=compress\u0026cs=tinysrgb\u0026fit=crop\u0026h=627\u0026w=1200","tiny":"https://images.pexels.com/photos/572688/pexels-photo-572688.jpeg?auto=compress\u0026cs=tinysrgb\u0026dpr=1\u0026fit=crop\u0026h=200\u0026w=280"},"liked":false,"alt":"Green Leafed Trees"},{"id":3274903,"width":5537,"height":3691,"url":"https://www.pexels.com/photo/mountain-and-sky-3274903/","photographer":"Aviv Perets","photographer_url":"https://www.pexels.com/@avivperets","photographer_id":1707817,"avg_color":"#51545C","src":{"original":"https://images.pexels.com/photos/3274903/pexels-photo-3274903.jpeg","large2x":"https://images.pexels.com/photos/3274903/pexels-photo-3274903.jpeg?auto=compress\u0026cs=tinysrgb\u0026dpr=2\u0026h=650\u0026w=940","large":"https://images.pexels.com/photos/3274903/pexels-photo-3274903.jpeg?auto=compress\u0026cs=tinysrgb\u0026h=650\u0026w=940","medium":"https://images.pexels.com/photos/3274903/pexels-photo-3274903.jpeg?auto=compress\u0026cs=tinysrgb\u0026h=350","small":"https://images.pexels.com/photos/3274903/pexels-photo-3274903.jpeg?auto=compress\u0026cs=tinysrgb\u0026h=130","portrait":"https://images.pexels.com/photos/3274903/pexels-photo-3274903.jpeg?auto=compress\u0026cs=tinysrgb\u0026fit=crop\u0026h=1200\u0026w=800","landscape":"https://images.pexels.com/photos/3274903/pexels-photo-3274903.jpeg?auto=compress\u0026cs=tinysrgb\u0026fit=crop\u0026h=627\u0026w=1200","tiny":"https://images.pexels.com/photos/3274903/pexels-photo-3274903.jpeg?auto=compress\u0026cs=tinysrgb\u0026dpr=1\u0026fit=crop\u0026h=200\u0026w=280"},"liked":false,"alt":"Mountain and Sky"}],"total_results":8000,"next_page":"https://api.pexels.com/v1/search/?page=2\u0026per_page=15\u0026query=nature"}