{"page":1,"per_page":15,"photos":[{"id":2050994,"width":3648,"height":5472,"url":"https://www.pexels.com/photo/woman-standing-near-yellow-petaled-flower-2050994/","photographer":"Edu Carvalho","photographer_url":"https://www.pexels.com/@educarvalho","photographer_id":1026575,"avg_color":"#5A4B39","src":{"original":"https://images.pexels.com/photos/2050994/pexels-photo-2050994.jpeg","large2x":"https://images.pexels.com/photos/2050994/pexels-photo-2050994.jpeg?auto=compress\u0026cs=tinysrgb\u0026dpr=2\u0026h=650\u0026w=940","large":"https://images.pexels.com/photos/2050994/pexels-photo-2050994.jpeg?auto=compress\u0026cs=tinysrgb\u0026h=650\u0026w=940","medium":"https://images.pexels.com/photos/2050994/pexels-photo-2050994.jpeg?auto=compress\u0026cs=tinysrgb\u0026h=350","small":"https://images.pexels.com/photos/2050994/pexels-photo-2050994.jpeg?auto=compress\u0026cs=tinysrgb\u0026h=130","portrait":"https://images.pexels.com/photos/2050994/pexels-photo-2050994.jpeg?auto=compress\u0026cs=tinysrgb\u0026fit=crop\u0026h=1200\u0026w=800","landscape":"https://images.pexels.com/photos/2050994/pexels-photo-2050994.jpeg?auto=compress\u0026cs=tinysrgb\u0026fit=crop\u0026h=627\u0026w=1200","tiny":"https://images.pexels.com/photos/2050994/pexels-photo-2050994.jpeg?auto=compress\u0026cs=tinysrgb\u0026dpr=1\u0026fit=crop\u0026h=200\u0026w=280"},"liked":false,"alt":"Woman Standing Near Yellow-petaled Flower"},{"id":837358,"width":6100,"height":4067,"url":"https://www.pexels.com/photo/man-in-brown-coat-and-gray-backpack-posing-for-a-photo-837358/","photographer":"Andrea Piacquadio","photographer_url":"https://www.pexels.com/@olly","photographer_id":224453,"avg_color":"#988974","src":{"original":"https://images.pexels.com/photos/837358/pexels-photo-837358.jpeg","large2x":"https://images.pexels.com/photos/837358/pexels-photo-837358.jpeg?auto=compress\u0026cs=tinysrgb\u0026dpr=2\u0026h=650\u0026w=940","large":"https://images.pexels.com/photos/837358/pexels-photo-837358.jpeg?auto=compress\u0026cs=tinysrgb\u0026h=650\u0026w=940","medium":"https://images.pexels.com/photos/837358/pexels-photo-837358.jpeg?auto=compress\u0026cs=tinysrgb\u0026h=350","small":"https://images.pexels.com/photos/837358/pexels-photo-837358.jpeg?auto=compress\u0026cs=tinysrgb\u0026h=130","portrait":"https://images.pexels.com/photos/837358/pexels-photo-837358.jpeg?auto=compress\u0026cs=tinysrgb\u0026fit=crop\u0026h=1200\u0026w=800","landscape":"https://images.pexels.com/photos/837358/pexels-photo-837358.jpeg?auto=compress\u0026cs=tinysrgb\u0026fit=crop\u0026h=627\u0026w=1200","tiny":"https://images.pexels.com/photos/837358/pexels-photo-837358.jpeg?auto=compress\u0026cs=tinysrgb\u0026dpr=1\u0026fit=crop\u0026h=200\u0026w=280"},"liked":false,"alt":"Man in Brown Coat and Gray Backpack Posing for a Photo"},{"id":39866,"width":4928,"height":3264,"url":"https://www.pexels.com/photo/person-in-blue-denim-jacket-sitting-on-chair-while-writing-39866/","photographer":"Pixabay","photographer_url":"https://www.pexels.com/@pixabay","photographer_id":2659,"avg_color":"#56524C","src":{"original":"https://images.pexels.com/photos/39866/entrepreneur-startup-start-up-man-39866.jpeg","large2x":"https://images.pexels.com/photos/39866/entrepreneur-startup-start-up-man-39866.jpeg?auto=compress\u0026cs=tinysrgb\u0026dpr=2\u0026h=650\u0026w=940","large":"https://images.pexels.com/photos/39866/entrepreneur-startup-start-up-man-39866.jpeg?auto=compress\u0026cs=tinysrgb\u0026h=650\u0026w=940","medium":"https://images.pexels.com/photos/39866/entrepreneur-startup-start-up-man-39866.jpeg?auto=compress\u0026cs=tinysrgb\u0026h=350","small":"https://images.pexels.com/photos/39866/entrepreneur-startup-start-up-man-39866.jpeg?auto=compress\u0026cs=tinysrgb\u0026h=130","portrait":"https://images.pexels.com/photos/39866/entrepreneur-startup-start-up-man-39866.jpeg?auto=compress\u0026cs=tinysrgb\u0026fit=crop\u0026h=1200\u0026w=800","landscape":"https://images.pexels.com/photos/39866/entrepreneur-startup-start-up-man-39866.jpeg?auto=compress\u0026cs=tinysrgb\u0026fit=crop\u0026h=627\u0026w=1200","tiny":"https://images.pexels.com/photos/39866/entrepreneur-startup-start-up-man-39866.jpeg?auto=compress\u0026cs=tinysrgb\u0026dpr=1\u0026fit=crop\u0026h=200\u0026w=280"},"liked":false,"alt":"Person in Blue Denim Jacket Sitting on Chair While Writing"},{"id":445109,"width":7016,"height":4405,"url":"https://www.pexels.com/photo/woman-holding-blue-smoke-flare-445109/","photographer":"Trinity  Kubassek","photographer_url":"https://www.pexels.com/@trinitykubassek","photographer_id":60607,"avg_color":"#4A8697","src":{"original":"https://images.pexels.com/photos/445109/pexels-photo-445109.jpeg","large2x":"https://images.pexels.com/photos/445109/pexels-photo-445109.jpeg?auto=compress\u0026cs=tinysrgb\u0026dpr=2\u0026h=650\u0026w=940","large":"https://images.pexels.com/photos/445109/pexels-photo-445109.jpeg?auto=compress\u0026cs=tinysrgb\u0026h=650\u0026w=940","medium":"https://images.pexels.com/photos/445109/pexels-photo-445109.jpeg?auto=compress\u0026cs=tinysrgb\u0026h=350","small":"https://images.pexels.com/photos/445109/pexels-photo-445109.jpeg?auto=compress\u0026cs=tinysrgb\u0026h=130","portrait":"https://images.pexels.com/photos/445109/pexels-photo-445109.jpeg?auto=compress\u0026cs=tinysrgb\u0026fit=crop\u0026h=1200\u0026w=800","landscape":"https://images.pexels.com/photos/445109/pexels-photo-445109.jpeg?auto=compress\u0026cs=tinysrgb\u0026fit=crop\u0026h=627\u0026w=1200","tiny":"https://images.pexels.com/photos/445109/pexels-photo-445109.jpeg?auto=compress\u0026cs=tinysrgb\u0026dpr=1\u0026fit=crop\u0026h=200\u0026w=280"},"liked":false,"alt":"Woman Holding Blue Smoke Flare"},{"id":1709003,"width":3600,"height":2400,"url":"https://www.pexels.com/photo/man-standing-in-front-of-people-1709003/","photographer":"ICSA","photographer_url":"https://www.pexels.com/@icsa-833425","photographer_id":833425,"avg_color":"#7C766A","src":{"original":"https://images.pexels.com/photos/1709003/pexels-photo-1709003.jpeg","large2x":"https://images.pexels.com/photos/1709003/pexels-photo-1709003.jpeg?auto=compress\u0026cs=tinysrgb\u0026dpr=2\u0026h=650\u0026w=940","large":"https://images.pexels.com/photos/1709003/pexels-photo-1709003.jpeg?auto=compress\u0026cs=tinysrgb\u0026h=650\u0026w=940","medium":"https://images.pexels.com/photos/1709003/pexels-photo-1709003.jpeg?auto=compress\u0026cs=tinysrgb\u0026h=350","small":"https://images.pexels.com/photos/1709003/pexels-photo-1709003.jpeg?auto=compress\u0026cs=tinysrgb\u0026h=130","portrait":"https://images.pexels.com/photos/1709003/pexels-photo-1709003.jpeg?auto=compress\u0026cs=tinysrgb\u0026fit=crop\u0026h=1200\u0026w=800","landscape":"https://images.pexels.com/photos/1709003/pexels-photo-1709003.jpeg?auto=compress\u0026cs=tinysrgb\u0026fit=crop\u0026h=627\u0026w=1200","tiny":"https://images.pexels.com/photos/1709003/pexels-photo-1709003.jpeg?auto=compress\u0026cs=tinysrgb\u0026dpr=1\u0026fit=crop\u0026h=200\u0026w=280"},"liked":false,"alt":"Man Standing In Front Of People "},{"id":240561,"width":6016,"height":4000,"url":"https://www.pexels.com/photo/aerial-view-of-fisherman-on-boat-240561/","photographer":"fabien pasquet","photographer_url":"https://www.pexels.com/@lecreusois","photographer_id":68145,"avg_color":"#33777A","src":{"original":"https://images.pexels.com/photos/240561/pexels-photo-240561.jpeg","large2x":"https://images.pexels.com/photos/240561/pexels-photo-240561.jpeg?auto=compress\u0026cs=tinysrgb\u0026dpr=2\u0026h=650\u0026w=940","large":"https://images.pexels.com/photos/240561/pexels-photo-240561.jpeg?auto=compress\u0026cs=tinysrgb\u0026h=650\u0026w=940","medium":"https://images.pexels.com/photos/240561/pexels-photo-240561.jpeg?auto=compress\u0026cs=tinysrgb\u0026h=350","small":"https://images.pexels.com/photos/240561/pexels-photo-240561.jpeg?auto=compress\u0026cs=tinysrgb\u0026h=130","portrait":"https://images.pexels.com/photos/240561/pexels-photo-240561.jpeg?auto=compress\u0026cs=tinysrgb\u0026fit=crop\u0026h=1200\u0026w=800","landscape":"https://images.pexels.com/photos/240561/pexels-photo-240561.jpeg?auto=compress\u0026cs=tinysrgb\u0026fit=crop\u0026h=627\u0026w=1200","tiny":"https://images.pexels.com/photos/240561/pexels-photo-240561.jpeg?auto=compress\u0026cs=tinysrgb\u0026dpr=1\u0026fit=crop\u0026h=200\u0026w=280"},"liked":false,"alt":"Aerial View of Fisherman on Boat"},{"id":889545,"width":4060,"height":2284,"url":"https://www.pexels.com/photo/group-of-people-on-road-with-assorted-color-smokes-889545/","photographer":"GEORGE DESIPRIS","photographer_url":"https://www.pexels.com/@george-desipris","photographer_id":228078,"avg_color":"#55384F","src":{"original":"https://images.pexels.com/photos/889545/pexels-photo-889545.jpeg","large2x":"https://images.pexels.com/photos/889545/pexels-photo-889545.jpeg?auto=compress\u0026cs=tinysrgb\u0026dpr=2\u0026h=650\u0026w=940","large":"https://images.pexels.com/photos/889545/pexels-photo-889545.jpeg?auto=compress\u0026cs=tinysrgb\u0026h=650\u0026w=940","medium":"https://images.pexels.com/photos/889545/pexels-photo-889545.jpeg?auto=compress\u0026cs=tinysrgb\u0026h=350","small":"https://images.pexels.com/photos/889545/pexels-photo-889545.jpeg?auto=compress\u0026cs=tinysrgb\u0026h=130","portrait":"https://images.pexels.com/photos/889545/pexels-photo-889545.jpeg?auto=compress\u0026cs=tinysrgb\u0026fit=crop\u0026h=1200\u0026w=800","landscape":"https://images.pexels.com/photos/889545/pexels-photo-889545.jpeg?auto=compress\u0026cs=tinysrgb\u0026fit=crop\u0026h=627\u0026w=1200","tiny":"https://images.pexels.com/photos/889545/pexels-photo-889545.jpeg?auto=compress\u0026cs=tinysrgb\u0026dpr=1\u0026fit=crop\u0026h=200\u0026w=280"},"liked":false,"alt":"Group of People on Road With Assorted-color Smokes"},{"id":699459,"width":3024,"height":4032,"url":"https://www.pexels.com/photo/turned-on-gray-laptop-computer-on-table-699459/","photographer":"Flo Dahm","photographer_url":"https://www.pexels.com/@flodahm","photographer_id":154317,"avg_color":"#AAA3A1","src":{"original":"https://images.pexels.com/photos/699459/pexels-photo-699459.jpeg","large2x":"https://images.pexels.com/photos/699459/pexels-photo-699459.jpeg?auto=compress\u0026cs=tinysrgb\u0026dpr=2\u0026h=650\u0026w=940","large":"https://images.pexels.com/photos/699459/pexels-photo-699459.jpeg?auto=compress\u0026cs=tinysrgb\u0026h=650\u0026w=940","medium":"https://images.pexels.com/photos/699459/pexels-photo-699459.jpeg?auto=compress\u0026cs=tinysrgb\u0026h=350","small":"https://images.pexels.com/photos/699459/pexels-photo-699459.jpeg?auto=compress\u0026cs=tinysrgb\u0026h=130","portrait":"https://images.pexels.com/photos/699459/pexels-photo-699459.jpeg?auto=compress\u0026cs=tinysrgb\u0026fit=crop\u0026h=1200\u0026w=800","landscape":"https://images.pexels.com/photos/699459/pexels-photo-699459.jpeg?auto=compress\u0026cs=tinysrgb\u0026fit=crop\u0026h=627\u0026w=1200","tiny":"https://images.pexels.com/photos/699459/pexels-photo-699459.jpeg?auto=compress\u0026cs=tinysrgb\u0026dpr=1\u0026fit=crop\u0026h=200\u0026w=280"},"liked":false,"alt":"Turned-on Gray Laptop Computer on Table"},{"id":301930,"width":5133,"height":3422,"url":"https://www.pexels.com/photo/group-of-people-inside-building-301930/","photographer":"Riccardo","photographer_url":"https://www.pexels.com/@riciardus","photographer_id":6950,"avg_color":"#878A87","src":{"original":"https://images.pexels.com/photos/301930/pexels-photo-301930.jpeg","large2x":"https://images.pexels.com/photos/301930/pexels-photo-301930.jpeg?auto=compress\u0026cs=tinysrgb\u0026dpr=2\u0026h=650\u0026w=940","large":"https://images.pexels.com/photos/301930/pexels-photo-301930.jpeg?auto=compress\u0026cs=tinysrgb\u0026h=650\u0026w=940","medium":"https://images.pexels.com/photos/301930/pexels-photo-301930.jpeg?auto=compress\u0026cs=tinysrgb\u0026h=350","small":"https://images.pexels.com/photos/301930/pexels-photo-301930.jpeg?auto=compress\u0026cs=tinysrgb\u0026h=130","portrait":"https://images.pexels.com/photos/301930/pexels-photo-301930.jpeg?auto=compress\u0026cs=tinysrgb\u0026fit=crop\u0026h=1200\u0026w=800","landscape":"https://images.pexels.com/photos/301930/pexels-photo-301930.jpeg?auto=compress\u0026cs=tinysrgb\u0026fit=crop\u0026h=627\u0026w=1200","tiny":"https://images.pexels.com/photos/301930/pexels-photo-301930.jpeg?auto=compress\u0026cs=tinysrgb\u0026dpr=1\u0026fit=crop\u0026h=200\u0026w=280"},"liked":false,"alt":"Group of People Inside Building"},{"id":1245055,"width":5184,"height":3456,"url":"https://www.pexels.com/photo/grayscale-photography-of-people-1245055/","photographer":"Paweł L.","photographer_url":"https://www.pexels.com/@pawel-l-435199","photographer_id":435199,"avg_color":"#7F7F7F","src":{"original":"https://images.pexels.com/photos/1245055/pexels-photo-1245055.jpeg","large2x":"https://images.pexels.com/photos/1245055/pexels-photo-1245055.jpeg?auto=compress\u0026cs=tinysrgb\u0026dpr=2\u0026h=650\u0026w=940","large":"https://images.pexels.com/photos/1245055/pexels-photo-1245055.jpeg?auto=compress\u0026cs=tinysrgb\u0026h=650\u0026w=940","medium":"https://images.pexels.com/photos/1245055/pexels-photo-1245055.jpeg?auto=compress\u0026cs=tinysrgb\u0026h=350","small":"https://images.pexels.com/photos/1245055/pexels-photo-1245055.jpeg?auto=compress\u0026cs=tinysrgb\u0026h=130","portrait":"https://images.pexels.com/photos/1245055/pexels-photo-1245055.jpeg?auto=compress\u0026cs=tinysrgb\u0026fit=crop\u0026h=1200\u0026w=800","landscape":"https://images.pexels.com/photos/1245055/pexels-photo-1245055.jpeg?auto=compress\u0026cs=tinysrgb\u0026fit=crop\u0026h=627\u0026w=1200","tiny":"https://images.pexels.com/photos/1245055/pexels-photo-1245055.jpeg?auto=compress\u0026cs=tinysrgb\u0026dpr=1\u0026fit=crop\u0026h=200\u0026w=280"},"liked":false,"alt":"Grayscale Photography Of People "},{"id":834894,"width":4800,"height":3200,"url":"https://www.pexels.com/photo/close-up-photograph-of-two-person-holding-sparklers-834894/","photographer":"JESHOOTS.com","photographer_url":"https://www.pexels.com/@jeshoots-com-147458","photographer_id":147458,"avg_color":"#72655F","src":{"original":"https://images.pexels.com/photos/834894/pexels-photo-834894.jpeg","large2x":"https://images.pexels.com/photos/834894/pexels-photo-834894.jpeg?auto=compress\u0026cs=tinysrgb\u0026dpr=2\u0026h=650\u0026w=940","large":"https://images.pexels.com/photos/834894/pexels-photo-834894.jpeg?auto=compress\u0026cs=tinysrgb\u0026h=650\u0026w=940","medium":"https://images.pexels.com/photos/834894/pexels-photo-834894.jpeg?auto=compress\u0026cs=tinysrgb\u0026h=350","small":"https://images.pexels.com/photos/834894/pexels-photo-834894.jpeg?auto=compress\u0026cs=tinysrgb\u0026h=130","portrait":"https://images.pexels.com/photos/834894/pexels-photo-834894.jpeg?auto=compress\u0026cs=tinysrgb\u0026fit=crop\u0026h=1200\u0026w=800","landscape":"https://images.pexels.com/photos/834894/pexels-photo-834894.jpeg?auto=compress\u0026cs=tinysrgb\u0026fit=crop\u0026h=627\u0026w=1200","tiny":"https://images.pexels.com/photos/834894/pexels-photo-834894.jpeg?auto=compress\u0026cs=tinysrgb\u0026dpr=1\u0026fit=crop\u0026h=200\u0026w=280"},"liked":false,"alt":"Close Up Photograph of Two Person Holding Sparklers"},{"id":2050979,"width":2933,"height":3319,"url":"https://www.pexels.com/photo/woman-taking-selfie-2050979/","photographer":"Edu Carvalho","photographer_url":"https://www.pexels.com/@educarvalho","photographer_id":1026575,"avg_color":"#5B4E42","src":{"original":"https://images.pexels.com/photos/2050979/pexels-photo-2050979.jpeg","large2x":"https://images.pexels.com/photos/2050979/pexels-photo-2050979.jpeg?auto=compress\u0026cs=tinysrgb\u0026dpr=2\u0026h=650\u0026w=940","large":"https://images.pexels.com/photos/2050979/pexels-photo-2050979.jpeg?auto=compress\u0026cs=tinysrgb\u0026h=650\u0026w=940","medium":"https://images.pexels.com/photos/2050979/pexels-photo-2050979.jpeg?auto=compress\u0026cs=tinysrgb\u0026h=350","small":"https://images.pexels.com/photos/2050979/pexels-photo-2050979.jpeg?auto=compress\u0026cs=tinysrgb\u0026h=130","portrait":"https://images.pexels.com/photos/2050979/pexels-photo-2050979.jpeg?auto=compress\u0026cs=tinysrgb\u0026fit=crop\u0026h=1200\u0026w=800","landscape":"https://images.pexels.com/photos/2050979/pexels-photo-2050979.jpeg?auto=compress\u0026cs=tinysrgb\u0026fit=crop\u0026h=627\u0026w=1200","tiny":"https://images.pexels.com/photos/2050979/pexels-photo-2050979.jpeg?auto=compress\u0026cs=tinysrgb\u0026dpr=1\u0026fit=crop\u0026h=200\u0026w=280"},"liked":false,"alt":"Woman taking Selfie"},{"id":267961,"width":4956,"height":3304,"url":"https://www.pexels.com/photo/action-adult-art-beauty-267961/","photographer":"Pixabay","photographer_url":"https://www.pexels.com/@pixabay","photographer_id":2659,"avg_color":"#384A53","src":{"original":"https://images.pexels.com/photos/267961/pexels-photo-267961.jpeg","large2x":"https://images.pexels.com/photos/267961/pexels-photo-267961.jpeg?auto=compress\u0026cs=tinysrgb\u0026dpr=2\u0026h=650\u0026w=940","large":"https://images.pexels.com/photos/267961/pexels-photo-267961.jpeg?auto=compress\u0026cs=tinysrgb\u0026h=650\u0026w=940","medium":"https://images.pexels.com/photos/267961/pexels-photo-267961.jpeg?auto=compress\u0026cs=tinysrgb\u0026h=350","small":"https://images.pexels.com/photos/267961/pexels-photo-267961.jpeg?auto=compress\u0026cs=tinysrgb\u0026h=130","portrait":"https://images.pexels.com/photos/267961/pexels-photo-267961.jpeg?auto=compress\u0026cs=tinysrgb\u0026fit=crop\u0026h=1200\u0026w=800","landscape":"https://images.pexels.com/photos/267961/pexels-photo-267961.jpeg?auto=compress\u0026cs=tinysrgb\u0026fit=crop\u0026h=627\u0026w=1200","tiny":"https://images.pexels.com/photos/267961/pexels-photo-267961.jpeg?auto=compress\u0026cs=tinysrgb\u0026dpr=1\u0026fit=crop\u0026h=200\u0026w=280"},"liked":false,"alt":"Man Wearing White Full-face Motorcycle Helmet"},{"id":903171,"width":5888,"height":3925,"url":"https://www.pexels.com/photo/women-having-exercise-using-dumbbells-903171/","photographer":"Andrea Piacquadio","photographer_url":"https://www.pexels.com/@olly","photographer_id":224453,"avg_color":"#948E8B","src":{"original":"https://images.pexels.com/photos/903171/pexels-photo-903171.jpeg","large2x":"https://images.pexels.com/photos/903171/pexels-photo-903171.jpeg?auto=compress\u0026cs=tinysrgb\u0026dpr=2\u0026h=650\u0026w=940","large":"https://images.pexels.com/photos/903171/pexels-photo-903171.jpeg?auto=compress\u0026cs=tinysrgb\u0026h=650\u0026w=940","medium":"https://images.pexels.com/photos/903171/pexels-photo-903171.jpeg?auto=compress\u0026cs=tinysrgb\u0026h=350","small":"https://images.pexels.com/photos/903171/pexels-photo-903171.jpeg?auto=compress\u0026cs=tinysrgb\u0026h=130","portrait":"https://images.pexels.com/photos/903171/pexels-photo-903171.jpeg?auto=compress\u0026cs=tinysrgb\u0026fit=crop\u0026h=1200\u0026w=800","landscape":"https://images.pexels.com/photos/903171/pexels-photo-903171.jpeg?auto=compress\u0026cs=tinysrgb\u0026fit=crop\u0026h=627\u0026w=1200","tiny":"https://images.pexels.com/photos/903171/pexels-photo-903171.jpeg?auto=compress\u0026cs=tinysrgb\u0026dpr=1\u0026fit=crop\u0026h=200\u0026w=280"},"liked":false,"alt":"Women Having Exercise Using Dumbbells"},{"id":1087735,"width":4256,"height":2532,"url":"https://www.pexels.com/photo/silhouette-of-man-standing-on-mountain-cliff-1087735/","photographer":"Min An","photographer_url":"https://www.pexels.com/@minan1398","photographer_id":206851,"avg_color":"#6E858B","src":{"original":"https://images.pexels.com/photos/1087735/pexels-photo-1087735.jpeg","large2x":"https://images.pexels.com/photos/1087735/pexels-photo-1087735.jpeg?auto=compress\u0026cs=tinysrgb\u0026dpr=2\u0026h=650\u0026w=940","large":"https://images.pexels.com/photos/1087735/pexels-photo-1087735.jpeg?auto=compress\u0026cs=tinysrgb\u0026h=650\u0026w=940","medium":"https://images.pexels.com/photos/1087735/pexels-photo-1087735.jpeg?auto=compress\u0026cs=tinysrgb\u0026h=350","small":"https://images.pexels.com/photos/1087735/pexels-photo-1087735.jpeg?auto=compress\u0026cs=tinysrgb\u0026h=130","portrait":"https://images.pexels.com/photos/1087735/pexels-photo-1087735.jpeg?auto=compress\u0026cs=tinysrgb\u0026fit=crop\u0026h=1200\u0026w=800","landscape":"https://images.pexels.com/photos/1087735/pexels-photo-1087735.jpeg?auto=compress\u0026cs=tinysrgb\u0026fit=crop\u0026h=627\u0026w=1200","tiny":"https://images.pexels.com/photos/1087735/pexels-photo-1087735.jpeg?auto=compress\u0026cs=tinysrgb\u0026dpr=1\u0026fit=crop\u0026h=200\u0026w=280"},"liked":false,"alt":"Silhouette of Man Standing on Mountain Cliff"}],"total_results":8000,"next_page":"https://api.pexels.com/v1/search/?page=2\u0026per_page=15\u0026query=people"}