{"source":"mock","page":1,"per_page":15,"photos":[{"id":1327838,"width":3024,"height":3294,"url":"https://www.pexels.com/photo/tomato-lot-1327838/","photographer":"Julia","photographer_url":"https://www.pexels.com/@julia-568948","photographer_id":568948,"avg_color":"#A63118","src":{"original":"https://images.pexels.com/photos/1327838/pexels-photo-1327838.jpeg","large2x":"https://images.pexels.com/photos/1327838/pexels-photo-1327838.jpeg?auto=compress\u0026cs=tinysrgb\u0026dpr=2\u0026h=650\u0026w=940","large":"https://images.pexels.com/photos/1327838/pexels-photo-1327838.jpeg?auto=compress\u0026cs=tinysrgb\u0026h=650\u0026w=940","medium":"https://images.pexels.com/photos/1327838/pexels-photo-1327838.jpeg?auto=compress\u0026cs=tinysrgb\u0026h=350","small":"https://images.pexels.com/photos/1327838/pexels-photo-1327838.jpeg?auto=compress\u0026cs=tinysrgb\u0026h=130","portrait":"https://images.pexels.com/photos/1327838/pexels-photo-1327838.jpeg?auto=compress\u0026cs=tinysrgb\u0026fit=crop\u0026h=1200\u0026w=800","landscape":"https://images.pexels.com/photos/1327838/pexels-photo-1327838.jpeg?auto=compress\u0026cs=tinysrgb\u0026fit=crop\u0026h=627\u0026w=1200","tiny":"https://images.pexels.com/photos/1327838/pexels-photo-1327838.jpeg?auto=compress\u0026cs=tinysrgb\u0026dpr=1\u0026fit=crop\u0026h=200\u0026w=280"},"liked":false,"alt":"Tomato Lot"},{"id":533280,"width":4592,"height":3064,"url":"https://www.pexels.com/photo/abundance-agriculture-fresh-healthy-533280/","photographer":"Pixabay","photographer_url":"https://www.pexels.com/@pixabay","photographer_id":2659,"avg_color":"#CF3015","src":{"original":"https://images.pexels.com/photos/533280/pexels-photo-533280.jpeg","large2x":"https://images.pexels.com/photos/533280/pexels-photo-533280.jpeg?auto=compress\u0026cs=tinysrgb\u0026dpr=2\u0026h=650\u0026w=940","large":"https://images.pexels.com/photos/533280/pexels-photo-533280.jpeg?auto=compress\u0026cs=tinysrgb\u0026h=650\u0026w=940","medium":"https://images.pexels.com/photos/533280/pexels-photo-533280.jpeg?auto=compress\u0026cs=tinysrgb\u0026h=350","small":"https://images.pexels.com/photos/533280/pexels-photo-533280.jpeg?auto=compress\u0026cs=tinysrgb\u0026h=130","portrait":"https://images.pexels.com/photos/533280/pexels-photo-533280.jpeg?auto=compress\u0026cs=tinysrgb\u0026fit=crop\u0026h=1200\u0026w=800","landscape":"https://images.pexels.com/photos/533280/pexels-photo-533280.jpeg?auto=compress\u0026cs=tinysrgb\u0026fit=crop\u0026h=627\u0026w=1200","tiny":"https://images.pexels.com/photos/533280/pexels-photo-533280.jpeg?auto=compress\u0026cs=tinysrgb\u0026dpr=1\u0026fit=crop\u0026h=200\u0026w=280"},"liked":false,"alt":"Pile of Red Tomatoes"},{"id":96616,"width":4608,"height":3072,"url":"https://www.pexels.com/photo/tomato-top-of-white-ceramic-plate-96616/","photographer":"PhotoMIX Company","photographer_url":"https://www.pexels.com/@wdnet","photographer_id":21063,"avg_color":"#C2A48F","src":{"original":"https://images.pexels.com/photos/96616/pexels-photo-96616.jpeg","large2x":"https://images.pexels.com/photos/96616/pexels-photo-96616.jpeg?auto=compress\u0026cs=tinysrgb\u0026dpr=2\u0026h=650\u0026w=940","large":"https://images.pexels.com/photos/96616/pexels-photo-96616.jpeg?auto=compress\u0026cs=tinysrgb\u0026h=650\u0026w=940","medium":"https://images.pexels.com/photos/96616/pexels-photo-96616.jpeg?auto=compress\u0026cs=tinysrgb\u0026h=350","small":"https://images.pexels.com/photos/96616/pexels-photo-96616.jpeg?auto=compress\u0026cs=tinysrgb\u0026h=130","portrait":"https://images.pexels.com/photos/96616/pexels-photo-96616.jpeg?auto=compress\u0026cs=tinysrgb\u0026fit=crop\u0026h=1200\u0026w=800","landscape":"https://images.pexels.com/photos/96616/pexels-photo-96616.jpeg?auto=compress\u0026cs=tinysrgb\u0026fit=crop\u0026h=627\u0026w=1200","tiny":"https://images.pexels.com/photos/96616/pexels-photo-96616.jpeg?auto=compress\u0026cs=tinysrgb\u0026dpr=1\u0026fit=crop\u0026h=200\u0026w=280"},"liked":false,"alt":"Tomato Top of White Ceramic Plate"},{"id":373019,"width":4577,"height":3432,"url":"https://www.pexels.com/photo/two-tomatoes-373019/","photographer":"Pixabay","photographer_url":"https://www.pexels.com/@pixabay","photographer_id":2659,"avg_color":"#9D8A85","src":{"original":"https://images.pexels.com/photos/373019/pexels-photo-373019.jpeg","large2x":"https://images.pexels.com/photos/373019/pexels-photo-373019.jpeg?auto=compress\u0026cs=tinysrgb\u0026dpr=2\u0026h=650\u0026w=940","large":"https://images.pexels.com/photos/373019/pexels-photo-373019.jpeg?auto=compress\u0026cs=tinysrgb\u0026h=650\u0026w=940","medium":"https://images.pexels.com/photos/373019/pexels-photo-373019.jpeg?auto=compress\u0026cs=tinysrgb\u0026h=350","small":"https://images.pexels.com/photos/373019/pexels-photo-373019.jpeg?auto=compress\u0026cs=tinysrgb\u0026h=130","portrait":"https://images.pexels.com/photos/373019/pexels-photo-373019.jpeg?auto=compress\u0026cs=tinysrgb\u0026fit=crop\u0026h=1200\u0026w=800","landscape":"https://images.pexels.com/photos/373019/pexels-photo-373019.jpeg?auto=compress\u0026cs=tinysrgb\u0026fit=crop\u0026h=627\u0026w=1200","tiny":"https://images.pexels.com/photos/373019/pexels-photo-373019.jpeg?auto=compress\u0026cs=tinysrgb\u0026dpr=1\u0026fit=crop\u0026h=200\u0026w=280"},"liked":false,"alt":"Two Tomatoes"},{"id":53588,"width":2000,"height":1458,"url":"https://www.pexels.com/photo/food-vegetables-red-tomatoes-53588/","photographer":"Pixabay","photographer_url":"https://www.pexels.com/@pixabay","photographer_id":2659,"avg_color":"#CDC0BC","src":{"original":"https://images.pexels.com/photos/53588/tomatoes-vegetables-food-frisch-53588.jpeg","large2x":"https://images.pexels.com/photos/53588/tomatoes-vegetables-food-frisch-53588.jpeg?auto=compress\u0026cs=tinysrgb\u0026dpr=2\u0026h=650\u0026w=940","large":"https://images.pexels.com/photos/53588/tomatoes-vegetables-food-frisch-53588.jpeg?auto=compress\u0026cs=tinysrgb\u0026h=650\u0026w=940","medium":"https://images.pexels.com/photos/53588/tomatoes-vegetables-food-frisch-53588.jpeg?auto=compress\u0026cs=tinysrgb\u0026h=350","small":"https://images.pexels.com/photos/53588/tomatoes-vegetables-food-frisch-53588.jpeg?auto=compress\u0026cs=tinysrgb\u0026h=130","portrait":"https://images.pexels.com/photos/53588/tomatoes-vegetables-food-frisch-53588.jpeg?auto=compress\u0026cs=tinysrgb\u0026fit=crop\u0026h=1200\u0026w=800","landscape":"https://images.pexels.com/photos/53588/tomatoes-vegetables-food-frisch-53588.jpeg?auto=compress\u0026cs=tinysrgb\u0026fit=crop\u0026h=627\u0026w=1200","tiny":"https://images.pexels.com/photos/53588/tomatoes-vegetables-food-frisch-53588.jpeg?auto=compress\u0026cs=tinysrgb\u0026dpr=1\u0026fit=crop\u0026h=200\u0026w=280"},"liked":false,"alt":"Red Tomatoes in White Bowl"},{"id":1391487,"width":3067,"height":4248,"url":"https://www.pexels.com/photo/photography-of-tomatoes-near-basil-leaves-1391487/","photographer":"monicore","photographer_url":"https://www.pexels.com/@monicore","photographer_id":37786,"avg_color":"#6A583C","src":{"original":"https://images.pexels.com/photos/1391487/pexels-photo-1391487.jpeg","large2x":"https://images.pexels.com/photos/1391487/pexels-photo-1391487.jpeg?auto=compress\u0026cs=tinysrgb\u0026dpr=2\u0026h=650\u0026w=940","large":"https://images.pexels.com/photos/1391487/pexels-photo-1391487.jpeg?auto=compress\u0026cs=tinysrgb\u0026h=650\u0026w=940","medium":"https://images.pexels.com/photos/1391487/pexels-photo-1391487.jpeg?auto=compress\u0026cs=tinysrgb\u0026h=350","small":"https://images.pexels.com/photos/1391487/pexels-photo-1391487.jpeg?auto=compress\u0026cs=tinysrgb\u0026h=130","portrait":"https://images.pexels.com/photos/1391487/pexels-photo-1391487.jpeg?auto=compress\u0026cs=tinysrgb\u0026fit=crop\u0026h=1200\u0026w=800","landscape":"https://images.pexels.com/photos/1391487/pexels-photo-1391487.jpeg?auto=compress\u0026cs=tinysrgb\u0026fit=crop\u0026h=627\u0026w=1200","tiny":"https://images.pexels.com/photos/1391487/pexels-photo-1391487.jpeg?auto=compress\u0026cs=tinysrgb\u0026dpr=1\u0026fit=crop\u0026h=200\u0026w=280"},"liked":false,"alt":"Photography of Tomatoes Near Basil Leaves"},{"id":965740,"width":5760,"height":3840,"url":"https://www.pexels.com/photo/green-and-red-oval-fruits-965740/","photographer":"Markus Spiske","photographer_url":"https://www.pexels.com/@markusspiske","photographer_id":19851,"avg_color":"#706F64","src":{"original":"https://images.pexels.com/photos/965740/pexels-photo-965740.jpeg","large2x":"https://images.pexels.com/photos/965740/pexels-photo-965740.jpeg?auto=compress\u0026cs=tinysrgb\u0026dpr=2\u0026h=650\u0026w=940","large":"https://images.pexels.com/photos/965740/pexels-photo-965740.jpeg?auto=compress\u0026cs=tinysrgb\u0026h=650\u0026w=940","medium":"https://images.pexels.com/photos/965740/pexels-photo-965740.jpeg?auto=compress\u0026cs=tinysrgb\u0026h=350","small":"https://images.pexels.com/photos/965740/pexels-photo-965740.jpeg?auto=compress\u0026cs=tinysrgb\u0026h=130","portrait":"https://images.pexels.com/photos/965740/pexels-photo-965740.jpeg?auto=compress\u0026cs=tinysrgb\u0026fit=crop\u0026h=1200\u0026w=800","landscape":"https://images.pexels.com/photos/965740/pexels-photo-965740.jpeg?auto=compress\u0026cs=tinysrgb\u0026fit=crop\u0026h=627\u0026w=1200","tiny":"https://images.pexels.com/photos/965740/pexels-photo-965740.jpeg?auto=compress\u0026cs=tinysrgb\u0026dpr=1\u0026fit=crop\u0026h=200\u0026w=280"},"liked":false,"alt":"Green and Red Oval Fruits"},{"id":533236,"width":6000,"height":4000,"url":"https://www.pexels.com/photo/cherry-tomatoes-close-up-cooking-delicious-533236/","photographer":"Pixabay","photographer_url":"https://www.pexels.com/@pixabay","photographer_id":2659,"avg_color":"#7A5541","src":{"original":"https://images.pexels.com/photos/533236/pexels-photo-533236.jpeg","large2x":"https://images.pexels.com/photos/533236/pexels-photo-533236.jpeg?auto=compress\u0026cs=tinysrgb\u0026dpr=2\u0026h=650\u0026w=940","large":"https://images.pexels.com/photos/533236/pexels-photo-533236.jpeg?auto=compress\u0026cs=tinysrgb\u0026h=650\u0026w=940","medium":"https://images.pexels.com/photos/533236/pexels-photo-533236.jpeg?auto=compress\u0026cs=tinysrgb\u0026h=350","small":"https://images.pexels.com/photos/533236/pexels-photo-533236.jpeg?auto=compress\u0026cs=tinysrgb\u0026h=130","portrait":"https://images.pexels.com/photos/533236/pexels-photo-533236.jpeg?auto=compress\u0026cs=tinysrgb\u0026fit=crop\u0026h=1200\u0026w=800","landscape":"https://images.pexels.com/photos/533236/pexels-photo-533236.jpeg?auto=compress\u0026cs=tinysrgb\u0026fit=crop\u0026h=627\u0026w=1200","tiny":"https://images.pexels.com/photos/533236/pexels-photo-533236.jpeg?auto=compress\u0026cs=tinysrgb\u0026dpr=1\u0026fit=crop\u0026h=200\u0026w=280"},"liked":false,"alt":"Red Tomatoes Near Glass Jar"},{"id":1367243,"width":5184,"height":3456,"url":"https://www.pexels.com/photo/red-tomatoes-1367243/","photographer":"Rauf Allahverdiyev","photographer_url":"https://www.pexels.com/@rauf-allahverdiyev-561368","photographer_id":561368,"avg_color":"#865C43","src":{"original":"https://images.pexels.com/photos/1367243/pexels-photo-1367243.jpeg","large2x":"https://images.pexels.com/photos/1367243/pexels-photo-1367243.jpeg?auto=compress\u0026cs=tinysrgb\u0026dpr=2\u0026h=650\u0026w=940","large":"https://images.pexels.com/photos/1367243/pexels-photo-1367243.jpeg?auto=compress\u0026cs=tinysrgb\u0026h=650\u0026w=940","medium":"https://images.pexels.com/photos/1367243/pexels-photo-1367243.jpeg?auto=compress\u0026cs=tinysrgb\u0026h=350","small":"https://images.pexels.com/photos/1367243/pexels-photo-1367243.jpeg?auto=compress\u0026cs=tinysrgb\u0026h=130","portrait":"https://images.pexels.com/photos/1367243/pexels-photo-1367243.jpeg?auto=compress\u0026cs=tinysrgb\u0026fit=crop\u0026h=1200\u0026w=800","landscape":"https://images.pexels.com/photos/1367243/pexels-photo-1367243.jpeg?auto=compress\u0026cs=tinysrgb\u0026fit=crop\u0026h=627\u0026w=1200","tiny":"https://images.pexels.com/photos/1367243/pexels-photo-1367243.jpeg?auto=compress\u0026cs=tinysrgb\u0026dpr=1\u0026fit=crop\u0026h=200\u0026w=280"},"liked":false,"alt":"Red Tomatoes"},{"id":162830,"width":4272,"height":2848,"url":"https://www.pexels.com/photo/red-tomatoes-162830/","photographer":"Pixabay","photographer_url":"https://www.pexels.com/@pixabay","photographer_id":2659,"avg_color":"#B5531F","src":{"original":"https://images.pexels.com/photos/162830/tomatoes-tomato-harvest-healthy-food-162830.jpeg","large2x":"https://images.pexels.com/photos/162830/tomatoes-tomato-harvest-healthy-food-162830.jpeg?auto=compress\u0026cs=tinysrgb\u0026dpr=2\u0026h=650\u0026w=940","large":"https://images.pexels.com/photos/162830/tomatoes-tomato-harvest-healthy-food-162830.jpeg?auto=compress\u0026cs=tinysrgb\u0026h=650\u0026w=940","medium":"https://images.pexels.com/photos/162830/tomatoes-tomato-harvest-healthy-food-162830.jpeg?auto=compress\u0026cs=tinysrgb\u0026h=350","small":"https://images.pexels.com/photos/162830/tomatoes-tomato-harvest-healthy-food-162830.jpeg?auto=compress\u0026cs=tinysrgb\u0026h=130","portrait":"https://images.pexels.com/photos/162830/tomatoes-tomato-harvest-healthy-food-162830.jpeg?auto=compress\u0026cs=tinysrgb\u0026fit=crop\u0026h=1200\u0026w=800","landscape":"https://images.pexels.com/photos/162830/tomatoes-tomato-harvest-healthy-food-162830.jpeg?auto=compress\u0026cs=tinysrgb\u0026fit=crop\u0026h=627\u0026w=1200","tiny":"https://images.pexels.com/photos/162830/tomatoes-tomato-harvest-healthy-food-162830.jpeg?auto=compress\u0026cs=tinysrgb\u0026dpr=1\u0026fit=crop\u0026h=200\u0026w=280"},"liked":false,"alt":"Red Tomatoes"},{"id":2899682,"width":5472,"height":7296,"url":"https://www.pexels.com/photo/red-tomatoes-on-board-2899682/","photographer":"Engin Akyurt","photographer_url":"https://www.pexels.com/@enginakyurt","photographer_id":631997,"avg_color":"#A23F29","src":{"original":"https://images.pexels.com/photos/2899682/pexels-photo-2899682.jpeg","large2x":"https://images.pexels.com/photos/2899682/pexels-photo-2899682.jpeg?auto=compress\u0026cs=tinysrgb\u0026dpr=2\u0026h=650\u0026w=940","large":"https://images.pexels.com/photos/2899682/pexels-photo-2899682.jpeg?auto=compress\u0026cs=tinysrgb\u0026h=650\u0026w=940","medium":"https://images.pexels.com/photos/2899682/pexels-photo-2899682.jpeg?auto=compress\u0026cs=tinysrgb\u0026h=350","small":"https://images.pexels.com/photos/2899682/pexels-photo-2899682.jpeg?auto=compress\u0026cs=tinysrgb\u0026h=130","portrait":"https://images.pexels.com/photos/2899682/pexels-photo-2899682.jpeg?auto=compress\u0026cs=tinysrgb\u0026fit=crop\u0026h=1200\u0026w=800","landscape":"https://images.pexels.com/photos/2899682/pexels-photo-2899682.jpeg?auto=compress\u0026cs=tinysrgb\u0026fit=crop\u0026h=627\u0026w=1200","tiny":"https://images.pexels.com/photos/2899682/pexels-photo-2899682.jpeg?auto=compress\u0026cs=tinysrgb\u0026dpr=1\u0026fit=crop\u0026h=200\u0026w=280"},"liked":false,"alt":"Red Tomatoes on Board"},{"id":1367242,"width":5184,"height":3456,"url":"https://www.pexels.com/photo/tomatoes-1367242/","photographer":"Rauf Allahverdiyev","photographer_url":"https://www.pexels.com/@rauf-allahverdiyev-561368","photographer_id":561368,"avg_color":"#73482F","src":{"original":"https://images.pexels.com/photos/1367242/pexels-photo-1367242.jpeg","large2x":"https://images.pexels.com/photos/1367242/pexels-photo-1367242.jpeg?auto=compress\u0026cs=tinysrgb\u0026dpr=2\u0026h=650\u0026w=940","large":"https://images.pexels.com/photos/1367242/pexels-photo-1367242.jpeg?auto=compress\u0026cs=tinysrgb\u0026h=650\u0026w=940","medium":"https://images.pexels.com/photos/1367242/pexels-photo-1367242.jpeg?auto=compress\u0026cs=tinysrgb\u0026h=350","small":"https://images.pexels.com/photos/1367242/pexels-photo-1367242.jpeg?auto=compress\u0026cs=tinysrgb\u0026h=130","portrait":"https://images.pexels.com/photos/1367242/pexels-photo-1367242.jpeg?auto=compress\u0026cs=tinysrgb\u0026fit=crop\u0026h=1200\u0026w=800","landscape":"https://images.pexels.com/photos/1367242/pexels-photo-1367242.jpeg?auto=compress\u0026cs=tinysrgb\u0026fit=crop\u0026h=627\u0026w=1200","tiny":"https://images.pexels.com/photos/1367242/pexels-photo-1367242.jpeg?auto=compress\u0026cs=tinysrgb\u0026dpr=1\u0026fit=crop\u0026h=200\u0026w=280"},"liked":false,"alt":"Tomatoes"},{"id":248420,"width":3840,"height":5760,"url":"https://www.pexels.com/photo/close-up-of-strawberries-in-container-248420/","photographer":"Pixabay","photographer_url":"https://www.pexels.com/@pixabay","photographer_id":2659,"avg_color":"#956249","src":{"original":"https://images.pexels.com/photos/248420/pexels-photo-248420.jpeg","large2x":"https://images.pexels.com/photos/248420/pexels-photo-248420.jpeg?auto=compress\u0026cs=tinysrgb\u0026dpr=2\u0026h=650\u0026w=940","large":"https://images.pexels.com/photos/248420/pexels-photo-248420.jpeg?auto=compress\u0026cs=tinysrgb\u0026h=650\u0026w=940","medium":"https://images.pexels.com/photos/248420/pexels-photo-248420.jpeg?auto=compress\u0026cs=tinysrgb\u0026h=350","small":"https://images.pexels.com/photos/248420/pexels-photo-248420.jpeg?auto=compress\u0026cs=tinysrgb\u0026h=130","portrait":"https://images.pexels.com/photos/248420/pexels-photo-248420.jpeg?auto=compress\u0026cs=tinysrgb\u0026fit=crop\u0026h=1200\u0026w=800","landscape":"https://images.pexels.com/photos/248420/pexels-photo-248420.jpeg?auto=compress\u0026cs=tinysrgb\u0026fit=crop\u0026h=627\u0026w=1200","tiny":"https://images.pexels.com/photos/248420/pexels-photo-248420.jpeg?auto=compress\u0026cs=tinysrgb\u0026dpr=1\u0026fit=crop\u0026h=200\u0026w=280"},"liked":false,"alt":"Close-up of Strawberries in Container"},{"id":209401,"width":5420,"height":4000,"url":"https://www.pexels.com/photo/food-table-tomatoes-vegetables-209401/","photographer":"Pixabay","photographer_url":"https://www.pexels.com/@pixabay","photographer_id":2659,"avg_color":"#916F5C","src":{"original":"https://images.pexels.com/photos/209401/pexels-photo-209401.jpeg","large2x":"https://images.pexels.com/photos/209401/pexels-photo-209401.jpeg?auto=compress\u0026cs=tinysrgb\u0026dpr=2\u0026h=650\u0026w=940","large":"https://images.pexels.com/photos/209401/pexels-photo-209401.jpeg?auto=compress\u0026cs=tinysrgb\u0026h=650\u0026w=940","medium":"https://images.pexels.com/photos/209401/pexels-photo-209401.jpeg?auto=compress\u0026cs=tinysrgb\u0026h=350","small":"https://images.pexels.com/photos/209401/pexels-photo-209401.jpeg?auto=compress\u0026cs=tinysrgb\u0026h=130","portrait":"https://images.pexels.com/photos/209401/pexels-photo-209401.jpeg?auto=compress\u0026cs=tinysrgb\u0026fit=crop\u0026h=1200\u0026w=800","landscape":"https://images.pexels.com/photos/209401/pexels-photo-209401.jpeg?auto=compress\u0026cs=tinysrgb\u0026fit=crop\u0026h=627\u0026w=1200","tiny":"https://images.pexels.com/photos/209401/pexels-photo-209401.jpeg?auto=compress\u0026cs=tinysrgb\u0026dpr=1\u0026fit=crop\u0026h=200\u0026w=280"},"liked":false,"alt":"Six Orange Tomatoes Forming Triangle on Brown Surface"},{"id":428301,"width":2048,"height":1365,"url":"https://www.pexels.com/photo/bunch-of-red-tomatoes-428301/","photographer":"Suvan Chowdhury","photographer_url":"https://www.pexels.com/@suvan-chowdhury-37305","photographer_id":37305,"avg_color":"#7C4237","src":{"original":"https://images.pexels.com/photos/428301/pexels-photo-428301.jpeg","large2x":"https://images.pexels.com/photos/428301/pexels-photo-428301.jpeg?auto=compress\u0026cs=tinysrgb\u0026dpr=2\u0026h=650\u0026w=940","large":"https://images.pexels.com/photos/428301/pexels-photo-428301.jpeg?auto=compress\u0026cs=tinysrgb\u0026h=650\u0026w=940","medium":"https://images.pexels.com/photos/428301/pexels-photo-428301.jpeg?auto=compress\u0026cs=tinysrgb\u0026h=350","small":"https://images.pexels.com/photos/428301/pexels-photo-428301.jpeg?auto=compress\u0026cs=tinysrgb\u0026h=130","portrait":"https://images.pexels.com/photos/428301/pexels-photo-428301.jpeg?auto=compress\u0026cs=tinysrgb\u0026fit=crop\u0026h=1200\u0026w=800","landscape":"https://images.pexels.com/photos/428301/pexels-photo-428301.jpeg?auto=compress\u0026cs=tinysrgb\u0026fit=crop\u0026h=627\u0026w=1200","tiny":"https://images.pexels.com/photos/428301/pexels-photo-428301.jpeg?auto=compress\u0026cs=tinysrgb\u0026dpr=1\u0026fit=crop\u0026h=200\u0026w=280"},"liked":false,"alt":"Bunch of Red Tomatoes"}],"total_results":4479,"next_page":"https://api.pexels.com/v1/search/?page=2\u0026per_page=15\u0026query=tomatoes"}